20.06.2010 10:46:57 Results of ResultWriter 'ResultWriter' [1]: 
20.06.2010 10:46:57 SplittedExampleSet:
6762 examples,
109 regular attributes,
special attributes = {
    id = #110: id (nominal/single_value)/values=["X10003", "X10006", "X10007", "X10016", "X10017", "X10019", "X10021", "X10027", "X10033", "X10034", "X10039", "X1004", "X10045", "X10047", "X10048", "X10049", "X10051", "X10052", "X10055", "X10056", "X10058", "X10063", "X10076", "X10081", "X10084", "X10087", "X10089", "X10093", "X10094", "X10099", "X101", "X10100", "X10103", "X10105", "X10107", "X10113", "X10115", "X10116", "X10118", "X1012", "X10123", "X10124", "X10128", "X1013", "X10135", "X10136", "X10139", "X1014", "X10142", "X10150", "X10151", "X10153", "X1016", "X10162", "X10165", "X10171", "X10172", "X10173", "X10175", "X10179", "X10182", "X10185", "X10186", "X10187", "X10189", "X10191", "X10197", "X10198", "X10200", "X10202", "X10211", "X10213", "X10214", "X10222", "X10223", "X10224", "X10225", "X10226", "X10233", "X10235", "X10236", "X1024", "X10243", "X10244", "X10245", "X10248", "X1025", "X10256", "X1027", "X10272", "X1028", "X10280", "X10281", "X10285", "X1029", "X10296", "X10297", "X103", "X10304", "X10318", ... (20186 values) ...]
    label = #109: label (nominal/single_value)/values=["regular", "vandalism"]
    confidence_"regular" = #112: confidence("regular") (real/single_value)
    confidence_"vandalism" = #113: confidence("vandalism") (real/single_value)
    prediction = #111: prediction(label) (nominal/single_value)/values=["regular", "vandalism"]
}
20.06.2010 11:15:31 Results of ResultWriter 'ResultWriter' [2]: 
20.06.2010 11:15:31 SplittedExampleSet:
6762 examples,
109 regular attributes,
special attributes = {
    id = #110: id (nominal/single_value)/values=["X10003", "X10006", "X10007", "X10016", "X10017", "X10019", "X10021", "X10027", "X10033", "X10034", "X10039", "X1004", "X10045", "X10047", "X10048", "X10049", "X10051", "X10052", "X10055", "X10056", "X10058", "X10063", "X10076", "X10081", "X10084", "X10087", "X10089", "X10093", "X10094", "X10099", "X101", "X10100", "X10103", "X10105", "X10107", "X10113", "X10115", "X10116", "X10118", "X1012", "X10123", "X10124", "X10128", "X1013", "X10135", "X10136", "X10139", "X1014", "X10142", "X10150", "X10151", "X10153", "X1016", "X10162", "X10165", "X10171", "X10172", "X10173", "X10175", "X10179", "X10182", "X10185", "X10186", "X10187", "X10189", "X10191", "X10197", "X10198", "X10200", "X10202", "X10211", "X10213", "X10214", "X10222", "X10223", "X10224", "X10225", "X10226", "X10233", "X10235", "X10236", "X1024", "X10243", "X10244", "X10245", "X10248", "X1025", "X10256", "X1027", "X10272", "X1028", "X10280", "X10281", "X10285", "X1029", "X10296", "X10297", "X103", "X10304", "X10318", ... (20186 values) ...]
    label = #109: label (nominal/single_value)/values=["regular", "vandalism"]
    confidence_"regular" = #118: confidence("regular") (real/single_value)
    confidence_"vandalism" = #116: confidence("vandalism") (real/single_value)
    prediction = #117: prediction(label) (nominal/single_value)/values=["regular", "vandalism"]
}
20.06.2010 11:43:02 Results of ResultWriter 'ResultWriter' [3]: 
20.06.2010 11:43:02 SplittedExampleSet:
6762 examples,
109 regular attributes,
special attributes = {
    id = #110: id (nominal/single_value)/values=["X10003", "X10006", "X10007", "X10016", "X10017", "X10019", "X10021", "X10027", "X10033", "X10034", "X10039", "X1004", "X10045", "X10047", "X10048", "X10049", "X10051", "X10052", "X10055", "X10056", "X10058", "X10063", "X10076", "X10081", "X10084", "X10087", "X10089", "X10093", "X10094", "X10099", "X101", "X10100", "X10103", "X10105", "X10107", "X10113", "X10115", "X10116", "X10118", "X1012", "X10123", "X10124", "X10128", "X1013", "X10135", "X10136", "X10139", "X1014", "X10142", "X10150", "X10151", "X10153", "X1016", "X10162", "X10165", "X10171", "X10172", "X10173", "X10175", "X10179", "X10182", "X10185", "X10186", "X10187", "X10189", "X10191", "X10197", "X10198", "X10200", "X10202", "X10211", "X10213", "X10214", "X10222", "X10223", "X10224", "X10225", "X10226", "X10233", "X10235", "X10236", "X1024", "X10243", "X10244", "X10245", "X10248", "X1025", "X10256", "X1027", "X10272", "X1028", "X10280", "X10281", "X10285", "X1029", "X10296", "X10297", "X103", "X10304", "X10318", ... (20186 values) ...]
    label = #109: label (nominal/single_value)/values=["regular", "vandalism"]
    confidence_"regular" = #115: confidence("regular") (real/single_value)
    confidence_"vandalism" = #111: confidence("vandalism") (real/single_value)
    prediction = #114: prediction(label) (nominal/single_value)/values=["regular", "vandalism"]
}
